ISSS608-VAA-chl - Take-home Exercise 1
…
# Subset the data frame to include only the selected columns
subset_fields_stu_qqq_SG <- stu_qqq_SG[, columns_to_extract, drop = FALSE]

# Print the subsetted data frame
print(subset_fields_stu_qqq_SG)

# A tibble: 6,606 × 83
   CNTSCHID CNTSTUID ST001D01T ST003D02T ST003D03T ST004D01T ST250Q01JA
      <dbl>    <dbl>     <dbl>     <dbl>     <dbl>     <dbl>      <dbl>
 1 70200052 70200001        10        10      2006         1          2
 2 70200134 70200002        10         6      2006         2          1
 3 70200112 70200003        10         7      2006         2          1
 4 70200004 70200004        10         2      2006         2          2
 5 70200152 70200005        10         9      2006         1          2
 6 70200043 70200006        10         9      2006         1          2
 7 70200049 70200007        10         3      2006         2          1
 8 70200107 70200008        10         4      2006         2          1
 9 70200012 70200009        10         8      2006         1          2
10 70200061 70200010        10         6      2006         2          2
# ℹ 6,596 more rows
# ℹ 76 more variables: ST250Q02JA <dbl>, ST250Q03JA <dbl>, ST250Q04JA <dbl>,
#   ST250Q05JA <dbl>, ST250D06JA <chr>, ST250D07JA <chr>, ST251Q01JA <dbl>,
#   ST251Q02JA <dbl>, ST251Q03JA <dbl>, ST251Q04JA <dbl>, ST251Q06JA <dbl>,
#   ST251Q07JA <dbl>, ST251D08JA <chr>, ST251D09JA <chr>, ST253Q01JA <dbl>,
#   ST254Q01JA <dbl>, ST254Q02JA <dbl>, ST254Q03JA <dbl>, ST254Q04JA <dbl>,
#   ST254Q05JA <dbl>, ST254Q06JA <dbl>, ST255Q01JA <dbl>, ST256Q01JA <dbl>, …
…
