ISSS608-VAA-chl - Take Home Ex 4
…
problems(weather_data)
weather_data

# A tibble: 577,295 × 14
   Station     Year Month   Day `Total Daily Rainfall` `Highest 30 Min Rainfall`
   <chr>      <dbl> <ord> <int>                  <dbl>                     <dbl>
 1 Paya Lebar  1980 Jan       1                    0                          NA
 2 Paya Lebar  1980 Jan       2                    0                          NA
 3 Paya Lebar  1980 Jan       3                    0                          NA
 4 Paya Lebar  1980 Jan       4                    0                          NA
 5 Paya Lebar  1980 Jan       5                   12.8                        NA
 6 Paya Lebar  1980 Jan       6                   25.5                        NA
 7 Paya Lebar  1980 Jan       7                    9.1                        NA
 8 Paya Lebar  1980 Jan       8                    0                          NA
 9 Paya Lebar  1980 Jan       9                    0                          NA
10 Paya Lebar  1980 Jan      10                    0                          NA
# ℹ 577,285 more rows
# ℹ 8 more variables: `Highest 60 Min Rainfall` <dbl>,
#   `Highest 120 Min Rainfall` <dbl>, `Mean Temperature` <dbl>,
#   `Maximum Temperature` <dbl>, `Minimum Temperature` <dbl>,
#   `Mean Wind Speed (km/h)` <dbl>, `Max Wind Speed (km/h)` <dbl>, Date <date>
…
  girafe(
    ggobj = plot,
    width_svg = 6,
    height_svg = 6*0.618,
    options = list(                        
      opts_hover(css = "fill: #202020;opacity:1; stroke-width:3"),  
      opts_hover_inv(css = "opacity:0.2;stroke-width:1") 
    )                                        
  
  )
} # end function generate_cycle_plot

weather_data

# A tibble: 577,295 × 14
   Station     Year Month   Day `Total Daily Rainfall` `Highest 30 Min Rainfall`
   <chr>      <dbl> <ord> <int>                  <dbl>                     <dbl>
 1 Paya Lebar  1980 Jan       1                    0                          NA
 2 Paya Lebar  1980 Jan       2                    0                          NA
 3 Paya Lebar  1980 Jan       3                    0                          NA
 4 Paya Lebar  1980 Jan       4                    0                          NA
 5 Paya Lebar  1980 Jan       5                   12.8                        NA
 6 Paya Lebar  1980 Jan       6                   25.5                        NA
 7 Paya Lebar  1980 Jan       7                    9.1                        NA
 8 Paya Lebar  1980 Jan       8                    0                          NA
 9 Paya Lebar  1980 Jan       9                    0                          NA
10 Paya Lebar  1980 Jan      10                    0                          NA
# ℹ 577,285 more rows
# ℹ 8 more variables: `Highest 60 Min Rainfall` <dbl>,
#   `Highest 120 Min Rainfall` <dbl>, `Mean Temperature` <dbl>,
#   `Maximum Temperature` <dbl>, `Minimum Temperature` <dbl>,
#   `Mean Wind Speed (km/h)` <dbl>, `Max Wind Speed (km/h)` <dbl>, Date <date>
…
weather_data

# A tibble: 577,295 × 14
   Station     Year Month   Day `Total Daily Rainfall` `Highest 30 Min Rainfall`
   <chr>      <dbl> <ord> <int>                  <dbl>                     <dbl>
 1 Paya Lebar  1980 Jan       1                    0                          NA
 2 Paya Lebar  1980 Jan       2                    0                          NA
 3 Paya Lebar  1980 Jan       3                    0                          NA
 4 Paya Lebar  1980 Jan       4                    0                          NA
 5 Paya Lebar  1980 Jan       5                   12.8                        NA
 6 Paya Lebar  1980 Jan       6                   25.5                        NA
 7 Paya Lebar  1980 Jan       7                    9.1                        NA
 8 Paya Lebar  1980 Jan       8                    0                          NA
 9 Paya Lebar  1980 Jan       9                    0                          NA
10 Paya Lebar  1980 Jan      10                    0                          NA
# ℹ 577,285 more rows
# ℹ 8 more variables: `Highest 60 Min Rainfall` <dbl>,
#   `Highest 120 Min Rainfall` <dbl>, `Mean Temperature` <dbl>,
#   `Maximum Temperature` <dbl>, `Minimum Temperature` <dbl>,
#   `Mean Wind Speed (km/h)` <dbl>, `Max Wind Speed (km/h)` <dbl>, Date <date>
…
